,Type,Name,Request Count,Failure Count,Median Response Time,Average Response Time,Min Response Time,Max Response Time,Average Content Size,Requests/s,Failures/s,50%,66%,75%,80%,90%,95%,98%,99%,99.9%,99.99%,100%,exp_id,users
0,coapclient,[2001:660:5307:3142::a172]:5683/sensors/gyros,840,0,260,405.1011904761905,92,8067,0.0,2.799981288081287,0.0,270,350,410,450,580,850,2800,3000,8100,8100,8100,2aa671a0-e38b-4262-9653-678c1550a661,15
1,coapclient,[2001:660:5307:3142::a269]:5683/sensors/gyros,610,0,240,438.3147540983607,94,8571,0.0,2.033319744916173,0.0,250,320,370,430,610,2300,2900,3100,8600,8600,8600,2aa671a0-e38b-4262-9653-678c1550a661,15
2,coapclient,[2001:660:5307:3142::b679]:5683/sensors/gyros,1685,0,300,389.68902077151336,93,8713,0.0,5.616629131448772,0.0,300,370,430,480,610,750,2200,2800,3600,8700,8700,2aa671a0-e38b-4262-9653-678c1550a661,15
3,,Aggregated,3135,0,280,403.28006379585327,92,8713,0.0,10.449930164446233,0.0,280,350,420,460,600,790,2700,2900,6800,8700,8700,2aa671a0-e38b-4262-9653-678c1550a661,15
0,coapclient,[2001:660:5307:3142::a172]:5683/sensors/gyros,699,0,320,665.0243204577969,92,9196,0.0,2.329984873416876,0.0,320,440,550,620,2200,2800,3200,8500,9200,9200,9200,ba254b17-ebba-4161-9b7d-0270f20b8388,20
1,coapclient,[2001:660:5307:3142::a269]:5683/sensors/gyros,2094,0,470,526.5558739255015,96,3690,0.0,6.9799546851715855,0.0,470,580,650,690,870,960,1200,2500,3300,3700,3700,ba254b17-ebba-4161-9b7d-0270f20b8388,20
2,coapclient,[2001:660:5307:3142::b679]:5683/sensors/gyros,926,0,410,569.7548596112312,96,3614,0.0,3.086646627731083,0.0,410,530,660,730,980,2200,2800,3200,3600,3600,3600,ba254b17-ebba-4161-9b7d-0270f20b8388,20
3,,Aggregated,3719,0,420,563.3377251949448,92,9196,0.0,12.396586186319546,0.0,420,560,640,690,900,1100,2800,3100,8700,9200,9200,ba254b17-ebba-4161-9b7d-0270f20b8388,20
0,coapclient,[2001:660:5307:3142::a172]:5683/sensors/gyros,936,0,200,250.1517094017094,92,3189,0.0,3.1199754327801164,0.0,200,240,280,300,380,460,570,2300,3200,3200,3200,c5f78e8b-b5de-4bf9-8864-cb3beb3a7a5d,10
1,coapclient,[2001:660:5307:3142::a269]:5683/sensors/gyros,472,0,160,258.27330508474574,93,3004,0.0,1.5733209447352725,0.0,160,220,250,280,370,450,2400,2900,3000,3000,3000,c5f78e8b-b5de-4bf9-8864-cb3beb3a7a5d,10
2,coapclient,[2001:660:5307:3142::b679]:5683/sensors/gyros,938,0,230,271.66524520255865,60,3190,0.0,3.1266420469527234,0.0,230,280,310,330,440,530,660,2200,3200,3200,3200,c5f78e8b-b5de-4bf9-8864-cb3beb3a7a5d,10
3,,Aggregated,2346,0,200,260.3874680306905,60,3190,0.0,7.819938424468113,0.0,200,250,290,310,400,480,660,2400,3200,3200,3200,c5f78e8b-b5de-4bf9-8864-cb3beb3a7a5d,10
0,coapclient,[2001:660:5307:3142::a172]:5683/sensors/gyros,1439,0,760,1901.012508686588,96,89448,0.0,4.796621982254286,0.0,760,970,1400,2500,3500,7500,9700,18000,89000,89000,89000,5eb75ab1-425c-492e-a777-3e13c44422d6,50
1,coapclient,[2001:660:5307:3142::a269]:5683/sensors/gyros,2522,0,950,1270.8354480570974,96,18280,0.0,8.406588352498478,0.0,950,1200,1400,1500,2800,3600,4400,5100,9500,18000,18000,5eb75ab1-425c-492e-a777-3e13c44422d6,50
2,coapclient,[2001:660:5307:3142::b679]:5683/sensors/gyros,1193,0,750,2274.528080469405,56,88882,0.0,3.976629621146187,0.0,750,1000,1600,2700,3700,8300,17000,20000,86000,89000,89000,5eb75ab1-425c-492e-a777-3e13c44422d6,50
3,,Aggregated,5154,0,840,1679.1067132324408,56,89448,0.0,17.17983995589895,0.0,840,1100,1400,1700,3200,4300,8700,16000,85000,89000,89000,5eb75ab1-425c-492e-a777-3e13c44422d6,50
0,coapclient,[2001:660:5307:3142::b679]:5683/sensors/gyros,271,0,100,106.29520295202953,94,217,0.0,0.9056304912518538,0.0,100,100,110,110,130,140,160,210,220,220,220,a440c1c6-3cf0-47e0-b5bb-5a53d028c0b8,1
1,,Aggregated,271,0,100,106.29520295202953,94,217,0.0,0.9056304912518538,0.0,100,100,110,110,130,140,160,210,220,220,220,a440c1c6-3cf0-47e0-b5bb-5a53d028c0b8,1
